{"code":200,"status":"Ok","copyright":"© 2020 MARVEL","attributionText":"Data provided by Marvel. © 2020 MARVEL","attributionHTML":"<a href=\"http://marvel.com\">Data provided by Marvel. © 2020 MARVEL</a>","etag":"ddabca6dc72aefece091824f969ed9e78c370850","data":{"offset":0,"limit":20,"total":117,"count":20,"results":[{"id":88627,"digitalId":0,"title":"Empyre: Avengers (2020) #3","issueNumber":3,"variantDescription":"","description":null,"modified":"2019-12-24T09:04:58-0500","isbn":"","upc":"75960609893400311","diamondCode":"APR200871","ean":"","issn":"","format":"Comic","pageCount":32,"textObjects":[],"resourceURI":"http://gateway.marvel.com/v1/public/comics/88627","urls":[{"type":"detail","url":"http://marvel.com/comics/issue/88627/empyre_avengers_2020_3?utm_campaign=apiRef&utm_source=659aadca6e5aa712c59235a84be22219"},{"type":"purchase","url":"http://comicstore.marvel.com/Empyre-Avengers-3/digital-comic/55075?utm_campaign=apiRef&utm_source=659aadca6e5aa712c59235a84be22219"}],"series":{"resourceURI":"http://gateway.marvel.com/v1/public/series/30519","name":"Empyre: Avengers (2020)"},"variants":[],"collections":[],"collectedIssues":[],"dates":[{"type":"onsaleDate","date":"2020-08-26T00:00:00-0400"},{"type":"focDate","date":"2020-08-03T00:00:00-0400"}],"prices":[{"type":"printPrice","price":3.99}],"thumbnail":{"path":"http://i.annihil.us/u/prod/marvel/i/mg/6/80/5f3d36c292e61","extension":"jpg"},"images":[{"path":"http://i.annihil.us/u/prod/marvel/i/mg/6/80/5f3d36c292e61","extension":"jpg"}],"creators":{"available":6,"collectionURI":"http://gateway.marvel.com/v1/public/comics/88627/creators","items":[{"resourceURI":"http://gateway.marvel.com/v1/public/creators/2133","name":"Tom Brevoort","role":"editor"},{"resourceURI":"http://gateway.marvel.com/v1/public/creators/5251","name":"Vc Joe Caramagna","role":"letterer"}],"returned":6},"characters":{"available":3,"collectionURI":"http://gateway.marvel.com/v1/public/comics/88627/characters","items":[{"resourceURI":"http://gateway.marvel.com/v1/public/characters/1009165","name":"Avengers"},{"resourceURI":"http://gateway.marvel.com/v1/public/characters/1011081","name":"Ka-Zar"}],"returned":3},"stories":{"available":2,"collectionURI":"http://gateway.marvel.com/v1/public/comics/88627/stories","items":[{"resourceURI":"http://gateway.marvel.com/v1/public/stories/197472","name":"cover from Empyre: Avengers (2020) #3","type":"cover"},{"resourceURI":"http://gateway.marvel.com/v1/public/stories/197473","name":"story from Empyre: Avengers (2020) #3","type":"interiorStory"}],"returned":2},"events":{"available":0,"collectionURI":"http://gateway.marvel.com/v1/public/comics/88627/events","items":[],"returned":0}}]}}
